…
4. Calculate the BMI for all humans (`mass / ((height / 100) ^ 2)`)

```R
> starwars %>%
+     select(name, mass, height, species) %>%
+     filter(species == 'Human') %>%
+     filter(!is.na(mass)) %>%
+     filter(!is.na(height)) %>%
+     mutate(bmi = (mass / ((height / 100) ^ 2)))
# A tibble: 22 x 5
   name                mass height species   bmi
   <chr>              <dbl>  <int> <chr>   <dbl>
 1 Luke Skywalker        77    172 Human    26.0
 2 Darth Vader          136    202 Human    33.3
 3 Leia Organa           49    150 Human    21.8
 4 Owen Lars            120    178 Human    37.9
 5 Beru Whitesun lars    75    165 Human    27.5
 6 Biggs Darklighter     84    183 Human    25.1
 7 Obi-Wan Kenobi        77    182 Human    23.2
 8 Anakin Skywalker      84    188 Human    23.8
 9 Han Solo              80    180 Human    24.7
10 Wedge Antilles        77    170 Human    26.6
# … with 12 more rows
```

5. Which character has the longest name?

```R
> starwars %>%
+     select(name) %>%
+     arrange(desc(str_length(name)))
# A tibble: 87 x 1
   name
   <chr>
 1 Jabba Desilijic Tiure
 2 Wicket Systri Warrick
 3 Bail Prestor Organa
 4 Beru Whitesun lars
 5 Biggs Darklighter
 6 Poggle the Lesser
 7 Anakin Skywalker
 8 Jek Tono Porkins
 9 Lando Calrissian
10 Luminara Unduli
# … with 77 more rows
```
…
## Task 2

1. What are the most populated planets?

```R
> starwars %>%
+     group_by(homeworld) %>%
+     summarise(n = n()) %>%
+     arrange(desc(n))
# A tibble: 49 x 2
   homeworld     n
   <chr>     <int>
 1 Naboo        11
 2 Tatooine     10
 3 NA           10
 4 Alderaan      3
 5 Coruscant     3
 6 Kamino        3
 7 Corellia      2
 8 Kashyyyk      2
 9 Mirial        2
10 Ryloth        2
# … with 39 more rows
```
…
